Data Analysis using R
…
```
## # A tibble: 165,460 × 12
##    Encuesta …¹ ...2  ...3  ...4  ...5  ...6  ...7  ...8  ...9  ...10 ...11 ...12
##    <chr>       <chr> <chr> <chr> <chr> <chr> <chr> <chr> <chr> <chr> <chr> <chr>
##  1 <NA>        <NA>  <NA>  <NA>  <NA>  <NA>  <NA>  <NA>  <NA>  <NA>  <NA>  <NA> 
##  2 <NA>        <NA>  <NA>  <NA>  <NA>  <NA>  <NA>  <NA>  <NA>  <NA>  <NA>  <NA> 
##  3 id          migr… age   muni… fence year  quar… sex   mari… empl… educ  inco…
##  4 189889      No    50    2004  0     2004  Q3    Fema… Sing… Unem… 12    0    
##  5 189889      No    50    2004  0     2004  Q4    Fema… Sing… Unem… 12    0    
##  6 189889      No    50    2004  0     2005  Q1    Fema… Sing… Unem… 12    0    
##  7 189890      No    26    2004  0     2005  Q4    Male  Marr… Full… 10    <NA> 
##  8 189890      No    26    2004  0     2006  Q1    Male  Marr… Full… 10    <NA> 
##  9 189890      No    26    2004  0     2006  Q2    Male  N/A   Full… 10    <NA> 
## 10 189891      No    36    2004  0     2006  Q4    Male  Marr… Full… 6     3440 
## # … with 165,450 more rows, and abbreviated variable name
## #   ¹​`Encuesta Nacional de Empleo/Encuesta Nacional de Ocupación y Empleo (Q3 2003 to Q3 2013`
```
…
```r
read_excel("data/raw/enoe/enoe.xlsx",
*          skip = 3, # Skip the first three lines
*          na = c("", "N/A")) # Interpret empty cells and cells containing "N/A" as missing
```
]
.panel[.panel-name[Message]

]
.panel[.panel-name[Output]

```
## # A tibble: 165,457 × 12
##    id     migrate age   munici…¹ fence year  quarter sex   marit…² empl_…³ educ 
##    <chr>  <chr>   <chr> <chr>    <chr> <chr> <chr>   <chr> <chr>   <chr>   <chr>
##  1 189889 No      50    2004     0     2004  Q3      Fema… Single  Unempl… 12   
##  2 189889 No      50    2004     0     2004  Q4      Fema… Single  Unempl… 12   
##  3 189889 No      50    2004     0     2005  Q1      Fema… Single  Unempl… 12   
##  4 189890 No      26    2004     0     2005  Q4      Male  Married Full-t… 10   
##  5 189890 No      26    2004     0     2006  Q1      Male  Married Full-t… 10   
##  6 189890 No      26    2004     0     2006  Q2      Male  <NA>    Full-t… 10   
##  7 189891 No      36    2004     0     2006  Q4      Male  Married Full-t… 6    
##  8 189891 No      36    2004     0     2007  Q1      Male  Married Full-t… 6    
##  9 189891 No      36    2004     0     2007  Q2      Male  Married Full-t… 6    
## 10 189894 No      33    2004     1     2010  Q3      <NA>  Married Full-t… 9    
## # … with 165,447 more rows, 1 more variable: income <chr>, and abbreviated
## #   variable names ¹​municipality, ²​marital_status, ³​empl_status
```
…
```
## Warning: One or more parsing issues, call `problems()` on your data frame for details,
## e.g.:
##   dat <- vroom(...)
##   problems(dat)
```

```
## # A tibble: 165,460 × 12
##    Encuesta …¹ ...2  ...3  ...4  ...5  ...6  ...7  ...8  ...9  ...10 ...11 ...12
##          <dbl> <chr> <chr> <chr> <chr> <chr> <chr> <chr> <chr> <chr> <chr> <chr>
##  1          NA <NA>  <NA>  <NA>  <NA>  <NA>  <NA>  <NA>  <NA>  <NA>  <NA>  <NA> 
##  2          NA <NA>  <NA>  <NA>  <NA>  <NA>  <NA>  <NA>  <NA>  <NA>  <NA>  <NA> 
##  3          NA migr… age   muni… fence year  quar… sex   mari… empl… educ  inco…
##  4      189889 No    50    2004  0     2004  Q3    Fema… Sing… Unem… 12    0    
##  5      189889 No    50    2004  0     2004  Q4    Fema… Sing… Unem… 12    0    
##  6      189889 No    50    2004  0     2005  Q1    Fema… Sing… Unem… 12    0    
##  7      189890 No    26    2004  0     2005  Q4    Male  Marr… Full… 10    <NA> 
##  8      189890 No    26    2004  0     2006  Q1    Male  Marr… Full… 10    <NA> 
##  9      189890 No    26    2004  0     2006  Q2    Male  N/A   Full… 10    <NA> 
## 10      189891 No    36    2004  0     2006  Q4    Male  Marr… Full… 6     3440 
## # … with 165,450 more rows, and abbreviated variable name
## #   ¹​`Encuesta Nacional de Empleo/Encuesta Nacional de Ocupación y Empleo (Q3 2003 to Q3 2013`
```
…
```
## Rows: 165457 Columns: 12
## ── Column specification ────────────────────────────────────────────────────────
## Delimiter: ","
## chr (11): migrate, age, municipality, fence, year, quarter, sex, marital_sta...
## dbl  (1): id
## 
## ℹ Use `spec()` to retrieve the full column specification for this data.
## ℹ Specify the column types or set `show_col_types = FALSE` to quiet this message.
```
]
.panel[.panel-name[Output]

```
## # A tibble: 165,457 × 12
##        id migrate age   munici…¹ fence year  quarter sex   marit…² empl_…³ educ 
##     <dbl> <chr>   <chr> <chr>    <chr> <chr> <chr>   <chr> <chr>   <chr>   <chr>
##  1 189889 No      50    2004     0     2004  Q3      Fema… Single  Unempl… 12   
##  2 189889 No      50    2004     0     2004  Q4      Fema… Single  Unempl… 12   
##  3 189889 No      50    2004     0     2005  Q1      Fema… Single  Unempl… 12   
##  4 189890 No      26    2004     0     2005  Q4      Male  Married Full-t… 10   
##  5 189890 No      26    2004     0     2006  Q1      Male  Married Full-t… 10   
##  6 189890 No      26    2004     0     2006  Q2      Male  <NA>    Full-t… 10   
##  7 189891 No      36    2004     0     2006  Q4      Male  Married Full-t… 6    
##  8 189891 No      36    2004     0     2007  Q1      Male  Married Full-t… 6    
##  9 189891 No      36    2004     0     2007  Q2      Male  Married Full-t… 6    
## 10 189894 No      33    2004     1     2010  Q3      NA    Married Full-t… 9    
## # … with 165,447 more rows, 1 more variable: income <chr>, and abbreviated
## #   variable names ¹​municipality, ²​marital_status, ³​empl_status
```
…
