Data Analysis using R
…
.panelset[
.panel[.panel-name[Code]

```r
# Load the ENE/ENOE data set
tbl_enoe <- read_csv("data/raw/enoe/enoe.csv", skip = 3, na = c("", "N/A"))

tbl_enoe
```
]
.panel[.panel-name[Output]

```
## # A tibble: 165,457 × 12
##        id migrate age   municipality fence year  quarter sex    marital_status
##     <dbl> <chr>   <chr> <chr>        <chr> <chr> <chr>   <chr>  <chr>         
##  1 189889 No      50    2004         0     2004  Q3      Female Single        
##  2 189889 No      50    2004         0     2004  Q4      Female Single        
##  3 189889 No      50    2004         0     2005  Q1      Female Single        
##  4 189890 No      26    2004         0     2005  Q4      Male   Married       
##  5 189890 No      26    2004         0     2006  Q1      Male   Married       
##  6 189890 No      26    2004         0     2006  Q2      Male   <NA>          
##  7 189891 No      36    2004         0     2006  Q4      Male   Married       
##  8 189891 No      36    2004         0     2007  Q1      Male   Married       
##  9 189891 No      36    2004         0     2007  Q2      Male   Married       
## 10 189894 No      33    2004         1     2010  Q3      NA     Married       
## # ℹ 165,447 more rows
## # ℹ 3 more variables: empl_status <chr>, educ <chr>, income <chr>
```
…
.panelset[
.panel[.panel-name[Code]

```r
# Recode sex to a "Yes"/"No" dummy
tbl_enoe %>% 
  mutate(female = ifelse(sex == "Female", "Yes", "No"),
         .before = 2)
```
]
.panel[.panel-name[Output]

```
## # A tibble: 165,457 × 13
##        id female migrate age   municipality fence year  quarter sex   
##     <dbl> <chr>  <chr>   <chr> <chr>        <chr> <chr> <chr>   <chr> 
##  1 189889 Yes    No      50    2004         0     2004  Q3      Female
##  2 189889 Yes    No      50    2004         0     2004  Q4      Female
##  3 189889 Yes    No      50    2004         0     2005  Q1      Female
##  4 189890 No     No      26    2004         0     2005  Q4      Male  
##  5 189890 No     No      26    2004         0     2006  Q1      Male  
##  6 189890 No     No      26    2004         0     2006  Q2      Male  
##  7 189891 No     No      36    2004         0     2006  Q4      Male  
##  8 189891 No     No      36    2004         0     2007  Q1      Male  
##  9 189891 No     No      36    2004         0     2007  Q2      Male  
## 10 189894 No     No      33    2004         1     2010  Q3      NA    
## # ℹ 165,447 more rows
## # ℹ 4 more variables: marital_status <chr>, empl_status <chr>, educ <chr>,
## #   income <chr>
```
…
```r
# Recode marital status to a two-category variable
tbl_enoe %>% 
  mutate(female = ifelse(sex == "Female", "Yes", "No"),
         married = ifelse(marital_status == "Married", "Yes", "No"),
         employed = ifelse(marital_status == "Unemployed", "No", "Yes"),
         .before = 2)
```
]
.panel[.panel-name[Output]

```
## # A tibble: 165,457 × 15
##        id female married employed migrate age   municipality fence year  quarter
##     <dbl> <chr>  <chr>   <chr>    <chr>   <chr> <chr>        <chr> <chr> <chr>  
##  1 189889 Yes    No      Yes      No      50    2004         0     2004  Q3     
##  2 189889 Yes    No      Yes      No      50    2004         0     2004  Q4     
##  3 189889 Yes    No      Yes      No      50    2004         0     2005  Q1     
##  4 189890 No     Yes     Yes      No      26    2004         0     2005  Q4     
##  5 189890 No     Yes     Yes      No      26    2004         0     2006  Q1     
##  6 189890 No     <NA>    <NA>     No      26    2004         0     2006  Q2     
##  7 189891 No     Yes     Yes      No      36    2004         0     2006  Q4     
##  8 189891 No     Yes     Yes      No      36    2004         0     2007  Q1     
##  9 189891 No     Yes     Yes      No      36    2004         0     2007  Q2     
## 10 189894 No     Yes     Yes      No      33    2004         1     2010  Q3     
## # ℹ 165,447 more rows
## # ℹ 5 more variables: sex <chr>, marital_status <chr>, empl_status <chr>,
## #   educ <chr>, income <chr>
```
…
tbl_enoe
```
]
.panel[.panel-name[Output]

```
## # A tibble: 165,457 × 17
##        id migrate   age municipality fence  year quarter sex    marital_status
##     <dbl>   <dbl> <dbl> <fct>        <chr> <dbl>   <dbl> <chr>  <chr>         
##  1 189889       0    50 2004         0      2004       2 Female Single        
##  2 189889       0    50 2004         0      2004       3 Female Single        
##  3 189889       0    50 2004         0      2005       0 Female Single        
##  4 189890       0    26 2004         0      2005       3 Male   Married       
##  5 189890       0    26 2004         0      2006       0 Male   Married       
##  6 189890       0    26 2004         0      2006       1 Male   <NA>          
##  7 189891       0    36 2004         0      2006       3 Male   Married       
##  8 189891       0    36 2004         0      2007       0 Male   Married       
##  9 189891       0    36 2004         0      2007       1 Male   Married       
## 10 189894       0    33 2004         1      2010       2 NA     Married       
## # ℹ 165,447 more rows
## # ℹ 8 more variables: empl_status <chr>, educ <dbl>, income <dbl>,
## #   female <dbl>, married <dbl>, employed <dbl>, ln_income <dbl>, period <dbl>
```
…
---

layout: false

## Selecting Variables by Names

```r
tbl_enoe %>% 
  select(id, migrate, marital_status, empl_status, educ, income, female)
```

```
## # A tibble: 165,457 × 7
##        id migrate marital_status empl_status  educ income female
##     <dbl>   <dbl> <chr>          <chr>       <dbl>  <dbl>  <dbl>
##  1 189889       0 Single         Unemployed     12      0      1
##  2 189889       0 Single         Unemployed     12      0      1
##  3 189889       0 Single         Unemployed     12      0      1
##  4 189890       0 Married        Full-time      10     NA      0
##  5 189890       0 Married        Full-time      10     NA      0
##  6 189890       0 <NA>           Full-time      10     NA      0
##  7 189891       0 Married        Full-time       6   3440      0
##  8 189891       0 Married        Full-time       6   3440      0
##  9 189891       0 Married        Full-time       6   3440      0
## 10 189894       0 Married        Full-time       9    559      0
## # ℹ 165,447 more rows
```

---

## Selecting Variables by Index

```r
tbl_enoe %>% 
  select(1, 2, 8:12)
```

```
## # A tibble: 165,457 × 7
##        id migrate sex    marital_status empl_status  educ income
##     <dbl>   <dbl> <chr>  <chr>          <chr>       <dbl>  <dbl>
##  1 189889       0 Female Single         Unemployed     12      0
##  2 189889       0 Female Single         Unemployed     12      0
##  3 189889       0 Female Single         Unemployed     12      0
##  4 189890       0 Male   Married        Full-time      10     NA
##  5 189890       0 Male   Married        Full-time      10     NA
##  6 189890       0 Male   <NA>           Full-time      10     NA
##  7 189891       0 Male   Married        Full-time       6   3440
##  8 189891       0 Male   Married        Full-time       6   3440
##  9 189891       0 Male   Married        Full-time       6   3440
## 10 189894       0 NA     Married        Full-time       9    559
## # ℹ 165,447 more rows
```

---

## Selecting Variables using Tidy Selection

```r
tbl_enoe %>% 
  select(all_of(c("female", "employed")), ends_with("income"), where(is.factor))
```

```
## # A tibble: 165,457 × 5
##    female employed income ln_income municipality
##     <dbl>    <dbl>  <dbl>     <dbl> <fct>       
##  1      1        0      0   -Inf    2004        
##  2      1        0      0   -Inf    2004        
##  3      1        0      0   -Inf    2004        
##  4      0        1     NA     NA    2004        
##  5      0        1     NA     NA    2004        
##  6      0        1     NA     NA    2004        
##  7      0        1   3440      8.14 2004        
##  8      0        1   3440      8.14 2004        
##  9      0        1   3440      8.14 2004        
## 10      0        1    559      6.33 2004        
## # ℹ 165,447 more rows
```

---

## Selecting and Renaming Variables

```r
tbl_enoe %>% 
  select(ID = id, empl = employed)
```

```
## # A tibble: 165,457 × 2
##        ID  empl
##     <dbl> <dbl>
##  1 189889     0
##  2 189889     0
##  3 189889     0
##  4 189890     1
##  5 189890     1
##  6 189890     1
##  7 189891     1
##  8 189891     1
##  9 189891     1
## 10 189894     1
## # ℹ 165,447 more rows
```
…
---

layout: false

## Filter by a Single Variable

```r
tbl_enoe %>% 
  filter(married == 1)
```

```
## # A tibble: 94,973 × 17
##        id migrate   age municipality fence  year quarter sex    marital_status
##     <dbl>   <dbl> <dbl> <fct>        <chr> <dbl>   <dbl> <chr>  <chr>         
##  1 189890       0    26 2004         0      2005       3 Male   Married       
##  2 189890       0    26 2004         0      2006       0 Male   Married       
##  3 189891       0    36 2004         0      2006       3 Male   Married       
##  4 189891       0    36 2004         0      2007       0 Male   Married       
##  5 189891       0    36 2004         0      2007       1 Male   Married       
##  6 189894       0    33 2004         1      2010       2 NA     Married       
##  7 189894       0    33 2004         1      2011       0 Female Married       
##  8 189894       0    33 2004         1      2011       1 NA     Married       
##  9 189895       0    32 2004         1      2012       0 Male   Married       
## 10 189895       0    32 2004         1      2012       1 Male   Married       
## # ℹ 94,963 more rows
## # ℹ 8 more variables: empl_status <chr>, educ <dbl>, income <dbl>,
## #   female <dbl>, married <dbl>, employed <dbl>, ln_income <dbl>, period <dbl>
```

---

## Filter by Multiple Variables

```r
tbl_enoe %>% 
  filter(married == 1, income > 0 & income <= 50000)
```

```
## # A tibble: 51,546 × 17
##        id migrate   age municipality fence  year quarter sex    marital_status
##     <dbl>   <dbl> <dbl> <fct>        <chr> <dbl>   <dbl> <chr>  <chr>         
##  1 189891       0    36 2004         0      2006       3 Male   Married       
##  2 189891       0    36 2004         0      2007       0 Male   Married       
##  3 189891       0    36 2004         0      2007       1 Male   Married       
##  4 189894       0    33 2004         1      2010       2 NA     Married       
##  5 189894       0    33 2004         1      2011       0 Female Married       
##  6 189894       0    33 2004         1      2011       1 NA     Married       
##  7 189895       0    32 2004         1      2012       0 Male   Married       
##  8 189895       0    32 2004         1      2012       1 Male   Married       
##  9 189895       0    32 2004         1      2012       2 Male   Married       
## 10 189902       0    30 2004         1      2010       2 Male   Married       
## # ℹ 51,536 more rows
## # ℹ 8 more variables: empl_status <chr>, educ <dbl>, income <dbl>,
## #   female <dbl>, married <dbl>, employed <dbl>, ln_income <dbl>, period <dbl>
```
…
## Filter using Tidy Selection

.panelset[
.panel[.panel-name[`if_any()`]
Filter if **any** variable satisfies the condition:

```r
tbl_enoe %>% 
  filter(if_any(all_of(c("income", "employed")), ~ !is.na(.)))
```

.scroll-box-14[

```
## # A tibble: 165,416 × 17
##        id migrate   age municipality fence  year quarter sex    marital_status
##     <dbl>   <dbl> <dbl> <fct>        <chr> <dbl>   <dbl> <chr>  <chr>         
##  1 189889       0    50 2004         0      2004       2 Female Single        
##  2 189889       0    50 2004         0      2004       3 Female Single        
##  3 189889       0    50 2004         0      2005       0 Female Single        
##  4 189890       0    26 2004         0      2005       3 Male   Married       
##  5 189890       0    26 2004         0      2006       0 Male   Married       
##  6 189890       0    26 2004         0      2006       1 Male   <NA>          
##  7 189891       0    36 2004         0      2006       3 Male   Married       
##  8 189891       0    36 2004         0      2007       0 Male   Married       
##  9 189891       0    36 2004         0      2007       1 Male   Married       
## 10 189894       0    33 2004         1      2010       2 NA     Married       
## # ℹ 165,406 more rows
## # ℹ 8 more variables: empl_status <chr>, educ <dbl>, income <dbl>,
## #   female <dbl>, married <dbl>, employed <dbl>, ln_income <dbl>, period <dbl>
```
]
]

.panel[.panel-name[`if_all()`]
Filter if **all** variables satisfy the condition:

```r
tbl_enoe %>% 
  filter(if_all(all_of(c("income", "employed")), ~ !is.na(.)))
```

.scroll-box-14[

```
## # A tibble: 147,692 × 17
##        id migrate   age municipality fence  year quarter sex    marital_status
##     <dbl>   <dbl> <dbl> <fct>        <chr> <dbl>   <dbl> <chr>  <chr>         
##  1 189889       0    50 2004         0      2004       2 Female Single        
##  2 189889       0    50 2004         0      2004       3 Female Single        
##  3 189889       0    50 2004         0      2005       0 Female Single        
##  4 189891       0    36 2004         0      2006       3 Male   Married       
##  5 189891       0    36 2004         0      2007       0 Male   Married       
##  6 189891       0    36 2004         0      2007       1 Male   Married       
##  7 189894       0    33 2004         1      2010       2 NA     Married       
##  8 189894       0    33 2004         1      2011       0 Female Married       
##  9 189894       0    33 2004         1      2011       1 NA     Married       
## 10 189895       0    32 2004         1      2012       0 Male   Married       
## # ℹ 147,682 more rows
## # ℹ 8 more variables: empl_status <chr>, educ <dbl>, income <dbl>,
## #   female <dbl>, married <dbl>, employed <dbl>, ln_income <dbl>, period <dbl>
```
…
```r
tbl_enoe <- tbl_enoe %>% 
  select(!where(is.character), -year, -quarter) %>% 
  filter(if_all(!ends_with("income"), ~ !is.na(.)))

tbl_enoe
```
]
.panel[.panel-name[Output]

```
## # A tibble: 157,248 × 11
##        id migrate   age municipality  educ income female married employed
##     <dbl>   <dbl> <dbl> <fct>        <dbl>  <dbl>  <dbl>   <dbl>    <dbl>
##  1 189889       0    50 2004            12      0      1       0        0
##  2 189889       0    50 2004            12      0      1       0        0
##  3 189889       0    50 2004            12      0      1       0        0
##  4 189890       0    26 2004            10     NA      0       1        1
##  5 189890       0    26 2004            10     NA      0       1        1
##  6 189891       0    36 2004             6   3440      0       1        1
##  7 189891       0    36 2004             6   3440      0       1        1
##  8 189891       0    36 2004             6   3440      0       1        1
##  9 189894       0    33 2004             9    559      0       1        1
## 10 189894       0    33 2004             9    559      1       1        1
## # ℹ 157,238 more rows
## # ℹ 2 more variables: ln_income <dbl>, period <dbl>
```
…
.pull-right.lo-wi[
Useful if observations should be sorted, e. g. in a descriptive summary table!
]

---

## Arranging Observations by Income

```r
tbl_enoe %>% 
  arrange(income)
```

```
## # A tibble: 157,248 × 11
##        id migrate   age municipality  educ income female married employed
##     <dbl>   <dbl> <dbl> <fct>        <dbl>  <dbl>  <dbl>   <dbl>    <dbl>
##  1 189889       0    50 2004            12      0      1       0        0
##  2 189889       0    50 2004            12      0      1       0        0
##  3 189889       0    50 2004            12      0      1       0        0
##  4 189898       0    28 2004             9      0      1       1        0
##  5 189898       0    28 2004             9      0      1       1        0
##  6 189898       0    28 2004             9      0      1       1        0
##  7 189899       0    27 2004             6      0      1       1        0
##  8 189908       0    15 2004             9      0      0       0        0
##  9 189909       0    16 2004             9      0      1       0        0
## 10 189909       0    16 2004             9      0      1       0        0
## # ℹ 157,238 more rows
## # ℹ 2 more variables: ln_income <dbl>, period <dbl>
```

---

## Arranging Observations by Sex and Income in Descending Order

```r
tbl_enoe %>% 
  arrange(female, desc(income))
```

```
## # A tibble: 157,248 × 11
##         id migrate   age municipality  educ  income female married employed
##      <dbl>   <dbl> <dbl> <fct>        <dbl>   <dbl>  <dbl>   <dbl>    <dbl>
##  1 5890042       0    60 28022            3 750000.      0       1        1
##  2 5892262       0    41 28027           12 172000.      0       1        1
##  3 5912451       0    55 28033           19 167000.      0       1        1
##  4 5886803       0    33 28022           12 129000.      0       1        1
##  5 5886803       0    33 28022           12 129000.      0       1        1
##  6 5924420       0    42 28040           17 129000.      0       1        1
##  7  376898       0    53 2002            17 111800.      0       1        1
##  8  218665       0    36 2004            12 103200.      0       1        1
##  9  390155       0    53 2002            16 100000.      0       1        1
## 10  390155       0    53 2002            16 100000.      0       1        1
## # ℹ 157,238 more rows
## # ℹ 2 more variables: ln_income <dbl>, period <dbl>
```
…
---

## Count Observations in Each Municipality

```r
tbl_enoe %>% 
  group_by(municipality) %>% 
  summarise(n = n())
```

```
## # A tibble: 24 × 2
##    municipality     n
##    <fct>        <int>
##  1 2004         63908
##  2 NA            1135
##  3 2002         35176
##  4 2003          4731
##  5 5025          2623
##  6 5002          2893
##  7 5014           649
##  8 8037         10485
##  9 8005            25
## 10 26055         3021
## # ℹ 14 more rows
```
…
```r
tbl_enoe %>%
  group_by(municipality, period) %>% 
  summarise(na_income = sum(is.na(income)))
```

.scroll-box-18[

```
## `summarise()` has grouped output by 'municipality'. You can override using the
## `.groups` argument.
```

```
## # A tibble: 782 × 3
## # Groups:   municipality [24]
##    municipality period na_income
##    <fct>         <dbl>     <int>
##  1 2004           0.5         51
##  2 2004           0.75        41
##  3 2004           1           44
##  4 2004           1.25        38
##  5 2004           1.5         38
##  6 2004           1.75        33
##  7 2004           2           33
##  8 2004           2.25       103
##  9 2004           2.5        147
## 10 2004           2.75       181
## # ℹ 772 more rows
```
…
tbl_fence
```

]
.panel[.panel-name[Output]

```
## # A tibble: 741 × 3
##    municipality fence period
##           <dbl> <dbl>  <dbl>
##  1         2004     0   0.5 
##  2         2004     0   0.75
##  3         2002     0   0.5 
##  4         2002     0   0.75
##  5         2003     0   0.5 
##  6         2003     0   0.75
##  7         5025     0   0.5 
##  8         5025     0   0.75
##  9         5002     0   0.5 
## 10         5002     0   0.75
## # ℹ 731 more rows
```
…
