Data Analysis using R
…
```
## 
## Attache Paket: 'zoo'
```

```
## Die folgenden Objekte sind maskiert von 'package:base':
## 
##     as.Date, as.Date.numeric
```

```
## # A tibble: 68 × 5
##    term               estimate std.error statistic  p.value
##    <chr>                 <dbl>     <dbl>     <dbl>    <dbl>
##  1 (Intercept)       0.00906   0.00152       5.94  2.81e- 9
##  2 fence            -0.00178   0.000888     -2.01  4.45e- 2
##  3 female           -0.00157   0.000290     -5.40  6.61e- 8
##  4 age              -0.0000534 0.0000110    -4.86  1.19e- 6
##  5 educ              0.0000278 0.0000353     0.788 4.31e- 1
##  6 married          -0.00214   0.000321     -6.69  2.21e-11
##  7 municipality2002 -0.00196   0.000320     -6.11  1.01e- 9
##  8 municipality2003 -0.000351  0.000850     -0.413 6.79e- 1
##  9 municipality5025  0.000940  0.00135       0.698 4.85e- 1
## 10 municipality5002 -0.000948  0.00101      -0.937 3.49e- 1
## # ℹ 58 more rows
```
…
broom::tidy(lp_coeftest_CL)
```
]
.panel[.panel-name[Output]
.scroll-box-20[

```
## # A tibble: 68 × 5
##    term               estimate std.error statistic   p.value
##    <chr>                 <dbl>     <dbl>     <dbl>     <dbl>
##  1 (Intercept)       0.00906   0.00275       3.30  9.80e-  4
##  2 fence            -0.00178   0.000921     -1.94  5.27e-  2
##  3 female           -0.00157   0.000438     -3.58  3.46e-  4
##  4 age              -0.0000534 0.0000132    -4.05  5.08e-  5
##  5 educ              0.0000278 0.0000687     0.405 6.86e-  1
##  6 married          -0.00214   0.000529     -4.06  4.96e-  5
##  7 municipality2002 -0.00196   0.0000786   -24.9   2.05e-136
##  8 municipality2003 -0.000351  0.0000392    -8.96  3.30e- 19
##  9 municipality5025  0.000940  0.0000967     9.72  2.44e- 22
## 10 municipality5002 -0.000948  0.000159     -5.95  2.68e-  9
## # ℹ 58 more rows
```
…
```r
library(marginaleffects)

# avg_slopes returns the AME
logit_me <- avg_slopes(logit_model)

broom::tidy(logit_me)
```
]
.panel[.panel-name[Output]
.scroll-box-20[

```
## # A tibble: 67 × 3
##    term         contrast       estimate
##    <chr>        <chr>             <dbl>
##  1 age          dY/dX        -0.0000546
##  2 educ         dY/dX         0.0000393
##  3 female       1 - 0        -0.00153  
##  4 fence        1 - 0        -0.00156  
##  5 married      1 - 0        -0.00204  
##  6 municipality 2002 - 2004  -0.00204  
##  7 municipality 2003 - 2004  -0.000366 
##  8 municipality 26002 - 2004  0.00326  
##  9 municipality 26017 - 2004 -0.00246  
## 10 municipality 26043 - 2004 -0.000595 
## # ℹ 57 more rows
```
…
